TestEditingAction 1639305471004 GameTest.java RENAME testGame()=>void testAddGame() METHOD RENAME testGame()=>void testAddGame() METHOD
TestEditingAction 1639305491187 GameTest.java CHANGE GameTest.java CLASS CHANGE GameTest.java CLASS
EditAction 1639305491288 GameTest.java 1121 2 23 4
EditAction 1639305491689 GameTest.java 1121 2 23 4
TestEditingAction 1639305661898 GameTest.java CHANGE GameTest.java CLASS CHANGE GameTest.java CLASS
EditAction 1639305661953 GameTest.java 1155 2 23 4
EditAction 1639305662424 GameTest.java 1155 2 23 4
TestFailureAction 1639305663490 bsk.java FAIL
TestCreationAction 1639305776548 GameTest.java ADD void testGetFrameAt() METHOD ADD void testGetFrameAt() METHOD
TestCreationAction 1639305780000 GameTest.java CHANGE GameTest.java CLASS CHANGE GameTest.java CLASS
EditAction 1639305780054 GameTest.java 1160 1 18 2
EditAction 1639305780557 GameTest.java 1160 1 18 2
TestPassAction 1639305780981 bsk.java OK
TestEditingAction 1639305894222 GameTest.java CHANGE GameTest.java CLASS CHANGE GameTest.java CLASS
EditAction 1639305894336 GameTest.java 893 1 18 2
EditAction 1639305894629 GameTest.java 893 1 18 2
TestEditingAction 1639306708890 GameTest.java CHANGE GameTest.java CLASS CHANGE GameTest.java CLASS
EditAction 1639306709003 GameTest.java 886 1 18 2
EditAction 1639306709250 GameTest.java 886 1 18 2
EditAction 1639306818108 Game.java 1914 8 7 0
EditAction 1639306818114 Game.java 1914 8 7 0
EditAction 1639306818269 Game.java 1914 8 7 0
EditAction 1639306819761 GameTest.java 886 1 18 2
EditAction 1639306819767 Game.java 1914 8 7 0
EditAction 1639306819771 Game.java 1914 8 7 0
EditAction 1639306819796 Game.java 1914 8 7 0
EditAction 1639306819952 GameTest.java 886 1 18 2
CodeEditingAction 1639306892981 Game.java CHANGE Game.java CLASS
EditAction 1639306893399 Game.java 1894 8 6 0
CodeEditingAction 1639307452892 Game.java CHANGE Game.java CLASS
EditAction 1639307453360 Game.java 2005 8 8 0
TestCreationAction 1639307460289 GameTest.java ADD void testGetFrameAt()/2 METHOD ADD void testGetFrameAt()/2 METHOD
TestCreationAction 1639307464799 GameTest.java RENAME testGetFrameAt()/2=>void test() METHOD RENAME testGetFrameAt()/2=>void test() METHOD
TestCreationAction 1639307466307 GameTest.java RENAME test()=>void testScore() METHOD RENAME test()=>void testScore() METHOD
TestCreationAction 1639307602055 GameTest.java CHANGE GameTest.java CLASS CHANGE GameTest.java CLASS
EditAction 1639307602108 GameTest.java 1391 2 30 3
EditAction 1639307602476 GameTest.java 1391 2 30 3
TestPassAction 1639307603019 bsk.java OK
CodeEditingAction 1639307972519 Game.java CHANGE Game.java CLASS
EditAction 1639307973001 Game.java 1990 8 9 0
TestPassAction 1639307973443 bsk.java OK
CodeEditingAction 1639308051684 Game.java CHANGE Game.java CLASS
EditAction 1639308051728 Game.java 1979 8 9 0
EditAction 1639308052312 Game.java 1979 8 9 0
TestPassAction 1639308052624 bsk.java OK
CodeEditingAction 1639308081824 Game.java CHANGE Game.java CLASS
EditAction 1639308081869 Game.java 1986 8 9 0
EditAction 1639308082360 Game.java 1986 8 9 0
TestPassAction 1639308082751 bsk.java OK
EditAction 1639308131318 Game.java 1986 8 9 0
CodeEditingAction 1639308136452 Game.java CHANGE Game.java CLASS
EditAction 1639308136890 Game.java 1981 8 9 0
EditAction 1639308150262 Game.java 1981 8 9 0
CodeEditingAction 1639308152582 Game.java CHANGE Game.java CLASS
EditAction 1639308153027 Game.java 1957 8 9 0
TestPassAction 1639308155632 bsk.java OK
EditAction 1639308161347 Game.java 1957 8 9 0
CodeEditingAction 1639308167094 Game.java CHANGE Game.java CLASS
EditAction 1639308167569 Game.java 1933 8 9 0
TestPassAction 1639308168058 bsk.java OK
CodeEditingAction 1639308188370 Game.java RENAME Index=>int index FIELD
CodeEditingAction 1639308204903 Game.java RENAME index=>int indexThrow FIELD
CodeEditingAction 1639308223890 Game.java CHANGE Game.java CLASS
EditAction 1639308224287 Game.java 1948 8 9 0
TestPassAction 1639308225852 bsk.java OK
TestPassAction 1639308318243 bsk.java OK
